[api-updater (non-obsolete-error-filter)] 09/08/2021 19:30:23 : Starting D:/Unity/Hub/Editor/2020.3.15f2/Editor/Data/Tools/ScriptUpdater/APIUpdater.NonObsoleteApiUpdaterDetector.exe
[api-updater (non-obsolete-error-filter)] 
----------------------------------
jit/startup time      : 8376,1018ms
moved types parse time: 267ms
candidates parse time : 26ms
C# parse time         : 1435ms
candidates check time : 67ms
console write time    : 0ms

