%YAML 1.1
%TAG !u! tag:unity3d.com,2011:
--- !u!74 &7400000
AnimationClip:
  m_ObjectHideFlags: 0
  m_CorrespondingSourceObject: {fileID: 0}
  m_PrefabInstance: {fileID: 0}
  m_PrefabAsset: {fileID: 0}
  m_Name: IA_Samourai_Attack
  serializedVersion: 6
  m_Legacy: 0
  m_Compressed: 0
  m_UseHighQualityCurve: 1
  m_RotationCurves: []
  m_CompressedRotationCurves: []
  m_EulerCurves: []
  m_PositionCurves: []
  m_ScaleCurves: []
  m_FloatCurves: []
  m_PPtrCurves:
  - curve:
    - time: 0
      value: {fileID: 6934013284892070054, guid: 16272a94dd295614fa5931b9dc6e8b96, type: 3}
    - time: 0.13333334
      value: {fileID: -7957278214813060823, guid: 16272a94dd295614fa5931b9dc6e8b96, type: 3}
    - time: 0.26666668
      value: {fileID: 1409549213185883415, guid: 16272a94dd295614fa5931b9dc6e8b96, type: 3}
    - time: 0.4
      value: {fileID: 4976274401295337057, guid: 16272a94dd295614fa5931b9dc6e8b96, type: 3}
    - time: 0.53333336
      value: {fileID: -5639509438907974925, guid: 16272a94dd295614fa5931b9dc6e8b96, type: 3}
    - time: 0.6666667
      value: {fileID: 6238536850125145498, guid: 16272a94dd295614fa5931b9dc6e8b96, type: 3}
    - time: 0.8
      value: {fileID: 7441861488978599509, guid: 35d3fde44e026b149b0bdf9a56cf2e33, type: 3}
    - time: 0.9
      value: {fileID: 8288915215451595207, guid: 35d3fde44e026b149b0bdf9a56cf2e33, type: 3}
    - time: 1.0166667
      value: {fileID: 4668938655123782945, guid: 35d3fde44e026b149b0bdf9a56cf2e33, type: 3}
    - time: 1.1166667
      value: {fileID: 5683539909772271658, guid: 35d3fde44e026b149b0bdf9a56cf2e33, type: 3}
    - time: 1.2333333
      value: {fileID: 5764228812365489207, guid: 35d3fde44e026b149b0bdf9a56cf2e33, type: 3}
    - time: 1.3333334
      value: {fileID: -1191510351576865934, guid: 35d3fde44e026b149b0bdf9a56cf2e33, type: 3}
    attribute: m_Sprite
    path: 
    classID: 212
    script: {fileID: 0}
  m_SampleRate: 60
  m_WrapMode: 0
  m_Bounds:
    m_Center: {x: 0, y: 0, z: 0}
    m_Extent: {x: 0, y: 0, z: 0}
  m_ClipBindingConstant:
    genericBindings:
    - serializedVersion: 2
      path: 0
      attribute: 0
      script: {fileID: 0}
      typeID: 212
      customType: 23
      isPPtrCurve: 1
    pptrCurveMapping:
    - {fileID: 6934013284892070054, guid: 16272a94dd295614fa5931b9dc6e8b96, type: 3}
    - {fileID: -7957278214813060823, guid: 16272a94dd295614fa5931b9dc6e8b96, type: 3}
    - {fileID: 1409549213185883415, guid: 16272a94dd295614fa5931b9dc6e8b96, type: 3}
    - {fileID: 4976274401295337057, guid: 16272a94dd295614fa5931b9dc6e8b96, type: 3}
    - {fileID: -5639509438907974925, guid: 16272a94dd295614fa5931b9dc6e8b96, type: 3}
    - {fileID: 6238536850125145498, guid: 16272a94dd295614fa5931b9dc6e8b96, type: 3}
    - {fileID: 7441861488978599509, guid: 35d3fde44e026b149b0bdf9a56cf2e33, type: 3}
    - {fileID: 8288915215451595207, guid: 35d3fde44e026b149b0bdf9a56cf2e33, type: 3}
    - {fileID: 4668938655123782945, guid: 35d3fde44e026b149b0bdf9a56cf2e33, type: 3}
    - {fileID: 5683539909772271658, guid: 35d3fde44e026b149b0bdf9a56cf2e33, type: 3}
    - {fileID: 5764228812365489207, guid: 35d3fde44e026b149b0bdf9a56cf2e33, type: 3}
    - {fileID: -1191510351576865934, guid: 35d3fde44e026b149b0bdf9a56cf2e33, type: 3}
  m_AnimationClipSettings:
    serializedVersion: 2
    m_AdditiveReferencePoseClip: {fileID: 0}
    m_AdditiveReferencePoseTime: 0
    m_StartTime: 0
    m_StopTime: 1.35
    m_OrientationOffsetY: 0
    m_Level: 0
    m_CycleOffset: 0
    m_HasAdditiveReferencePose: 0
    m_LoopTime: 0
    m_LoopBlend: 0
    m_LoopBlendOrientation: 0
    m_LoopBlendPositionY: 0
    m_LoopBlendPositionXZ: 0
    m_KeepOriginalOrientation: 0
    m_KeepOriginalPositionY: 1
    m_KeepOriginalPositionXZ: 0
    m_HeightFromFeet: 0
    m_Mirror: 0
  m_EditorCurves: []
  m_EulerEditorCurves: []
  m_HasGenericRootTransform: 0
  m_HasMotionFloatCurves: 0
  m_Events:
  - time: 0.51666665
    functionName: SwordOut
    data: 
    objectReferenceParameter: {fileID: 0}
    floatParameter: 0
    intParameter: 0
    messageOptions: 0
  - time: 0.6666667
    functionName: SwordIn
    data: 
    objectReferenceParameter: {fileID: 0}
    floatParameter: 0
    intParameter: 0
    messageOptions: 0
  - time: 1.2166667
    functionName: SwordOut
    data: 
    objectReferenceParameter: {fileID: 0}
    floatParameter: 0
    intParameter: 0
    messageOptions: 0
  - time: 1.3333334
    functionName: SwordIn
    data: 
    objectReferenceParameter: {fileID: 0}
    floatParameter: 0
    intParameter: 0
    messageOptions: 0
