%YAML 1.1
%TAG !u! tag:unity3d.com,2011:
--- !u!74 &7400000
AnimationClip:
  m_ObjectHideFlags: 0
  m_CorrespondingSourceObject: {fileID: 0}
  m_PrefabInstance: {fileID: 0}
  m_PrefabAsset: {fileID: 0}
  m_Name: PlayerClimb
  serializedVersion: 6
  m_Legacy: 0
  m_Compressed: 0
  m_UseHighQualityCurve: 1
  m_RotationCurves: []
  m_CompressedRotationCurves: []
  m_EulerCurves: []
  m_PositionCurves: []
  m_ScaleCurves: []
  m_FloatCurves: []
  m_PPtrCurves:
  - curve:
    - time: 0.016666668
      value: {fileID: 21300000, guid: 348c1a6563f4716479dee4145f3b6a93, type: 3}
    - time: 0.1
      value: {fileID: 21300000, guid: b86cdee0e8921cf478af823fe5eb75cc, type: 3}
    - time: 0.2
      value: {fileID: 21300000, guid: 819c377f1e6d8cb41a33dc99b60c38bc, type: 3}
    - time: 0.28333333
      value: {fileID: 21300000, guid: 6fe8eef755e3bac45adc743ec4c6285e, type: 3}
    - time: 0.38333333
      value: {fileID: 21300000, guid: 154e8efd52df05c4194067456ef13de4, type: 3}
    - time: 0.55
      value: {fileID: 21300000, guid: 07beca11b6415b842883833d53358e3d, type: 3}
    - time: 0.71666664
      value: {fileID: 21300000, guid: 9c9cd6dc18e581946b675a7361b440bd, type: 3}
    - time: 0.8833333
      value: {fileID: 21300000, guid: ed11f26a6eb8f044d977c417efb8eb34, type: 3}
    - time: 1.05
      value: {fileID: 21300000, guid: 3266512de5cec6945a55187d57cc2c7e, type: 3}
    attribute: m_Sprite
    path: 
    classID: 212
    script: {fileID: 0}
  m_SampleRate: 60
  m_WrapMode: 0
  m_Bounds:
    m_Center: {x: 0, y: 0, z: 0}
    m_Extent: {x: 0, y: 0, z: 0}
  m_ClipBindingConstant:
    genericBindings:
    - serializedVersion: 2
      path: 0
      attribute: 0
      script: {fileID: 0}
      typeID: 212
      customType: 23
      isPPtrCurve: 1
    pptrCurveMapping:
    - {fileID: 21300000, guid: 348c1a6563f4716479dee4145f3b6a93, type: 3}
    - {fileID: 21300000, guid: b86cdee0e8921cf478af823fe5eb75cc, type: 3}
    - {fileID: 21300000, guid: 819c377f1e6d8cb41a33dc99b60c38bc, type: 3}
    - {fileID: 21300000, guid: 6fe8eef755e3bac45adc743ec4c6285e, type: 3}
    - {fileID: 21300000, guid: 154e8efd52df05c4194067456ef13de4, type: 3}
    - {fileID: 21300000, guid: 07beca11b6415b842883833d53358e3d, type: 3}
    - {fileID: 21300000, guid: 9c9cd6dc18e581946b675a7361b440bd, type: 3}
    - {fileID: 21300000, guid: ed11f26a6eb8f044d977c417efb8eb34, type: 3}
    - {fileID: 21300000, guid: 3266512de5cec6945a55187d57cc2c7e, type: 3}
  m_AnimationClipSettings:
    serializedVersion: 2
    m_AdditiveReferencePoseClip: {fileID: 0}
    m_AdditiveReferencePoseTime: 0
    m_StartTime: 0
    m_StopTime: 1.0666666
    m_OrientationOffsetY: 0
    m_Level: 0
    m_CycleOffset: 0
    m_HasAdditiveReferencePose: 0
    m_LoopTime: 0
    m_LoopBlend: 0
    m_LoopBlendOrientation: 0
    m_LoopBlendPositionY: 0
    m_LoopBlendPositionXZ: 0
    m_KeepOriginalOrientation: 0
    m_KeepOriginalPositionY: 1
    m_KeepOriginalPositionXZ: 0
    m_HeightFromFeet: 0
    m_Mirror: 0
  m_EditorCurves: []
  m_EulerEditorCurves: []
  m_HasGenericRootTransform: 0
  m_HasMotionFloatCurves: 0
  m_Events: []
