%YAML 1.1
%TAG !u! tag:unity3d.com,2011:
--- !u!1045 &1
EditorBuildSettings:
  m_ObjectHideFlags: 0
  serializedVersion: 2
  m_Scenes:
  - enabled: 1
    path: Assets/Scenes/Intro.unity
    guid: 253d6fae6aad7a54d913d1711ac14c39
  - enabled: 1
    path: Assets/Scenes/MainLevel.unity
    guid: 2cda990e2423bbf4892e6590ba056729
  m_configObjects: {}
